<svg xmlns="http://www.w3.org/2000/svg" viewBox="0 0 8 12.396">
  <defs>
    <style>
      .cls-1 {
        fill: #fff;
      }
    </style>
  </defs>
  <path id="angle-right" class="cls-1" d="M32.477,102.806l-5.267,5.267a.926.926,0,0,1-1.313,0l-.875-.875a.926.926,0,0,1,0-1.313l3.733-3.733-3.733-3.733a.926.926,0,0,1,0-1.313l.871-.883a.926.926,0,0,1,1.313,0l5.267,5.267A.927.927,0,0,1,32.477,102.806Z" transform="translate(-24.75 -95.95)"/>
</svg>
