<svg xmlns="http://www.w3.org/2000/svg" viewBox="0 0 25 15.972">
  <defs>
    <style>
      .cls-1 {
        fill: #fff;
        opacity: 0.5;
      }
    </style>
  </defs>
  <path id="eye" class="cls-1" d="M24.711,78.928a14.226,14.226,0,0,0-24.423,0,2.083,2.083,0,0,0,0,2.115,14.226,14.226,0,0,0,24.423,0A2.083,2.083,0,0,0,24.711,78.928ZM12.5,85.889a5.9,5.9,0,1,1,5.9-5.9A5.9,5.9,0,0,1,12.5,85.889Zm4.514-5.9a4.514,4.514,0,1,1-8.5-2.126h0A1.859,1.859,0,1,0,10.375,76h0a4.515,4.515,0,0,1,6.639,3.983Z" transform="translate(0 -72)"/>
</svg>
